<?xml version="1.0" encoding="UTF-8" standalone="no"?>
<!-- Created with Inkscape (http://www.inkscape.org/) -->

<svg
   xmlns:dc="http://purl.org/dc/elements/1.1/"
   xmlns:cc="http://creativecommons.org/ns#"
   xmlns:rdf="http://www.w3.org/1999/02/22-rdf-syntax-ns#"
   xmlns:svg="http://www.w3.org/2000/svg"
   xmlns="http://www.w3.org/2000/svg"
   xmlns:sodipodi="http://sodipodi.sourceforge.net/DTD/sodipodi-0.dtd"
   xmlns:inkscape="http://www.inkscape.org/namespaces/inkscape"
   width="542.71429"
   height="519.28571"
   id="svg2"
   version="1.1"
   inkscape:version="0.48.4 r9939"
   sodipodi:docname="drawing.svg">
  <defs
     id="defs4">
    <inkscape:path-effect
       effect="spiro"
       id="path-effect4602"
       is_visible="true" />
    <marker
       inkscape:stockid="Arrow1Lend"
       orient="auto"
       refY="0"
       refX="0"
       id="Arrow1Lend"
       style="overflow:visible">
      <path
         id="path3951"
         d="M 0,0 5,-5 -12.5,0 5,5 0,0 z"
         style="fill-rule:evenodd;stroke:#000000;stroke-width:1pt"
         transform="matrix(-0.8,0,0,-0.8,-10,0)"
         inkscape:connector-curvature="0" />
    </marker>
    <marker
       inkscape:stockid="Arrow1Mend"
       orient="auto"
       refY="0"
       refX="0"
       id="Arrow1Mend"
       style="overflow:visible">
      <path
         id="path3957"
         d="M 0,0 5,-5 -12.5,0 5,5 0,0 z"
         style="fill-rule:evenodd;stroke:#000000;stroke-width:1pt"
         transform="matrix(-0.4,0,0,-0.4,-4,0)"
         inkscape:connector-curvature="0" />
    </marker>
    <inkscape:path-effect
       effect="spiro"
       id="path-effect3942"
       is_visible="true" />
    <inkscape:path-effect
       effect="spiro"
       id="path-effect3938"
       is_visible="true" />
    <marker
       inkscape:stockid="Arrow1Lend"
       orient="auto"
       refY="0"
       refX="0"
       id="Arrow1Lend-8"
       style="overflow:visible">
      <path
         inkscape:connector-curvature="0"
         id="path3951-5"
         d="M 0,0 5,-5 -12.5,0 5,5 0,0 z"
         style="fill-rule:evenodd;stroke:#000000;stroke-width:1pt"
         transform="matrix(-0.8,0,0,-0.8,-10,0)" />
    </marker>
    <inkscape:path-effect
       effect="spiro"
       id="path-effect3942-6"
       is_visible="true" />
    <marker
       inkscape:stockid="Arrow1Lend"
       orient="auto"
       refY="0"
       refX="0"
       id="Arrow1Lend-3"
       style="overflow:visible">
      <path
         inkscape:connector-curvature="0"
         id="path3951-8"
         d="M 0,0 5,-5 -12.5,0 5,5 0,0 z"
         style="fill-rule:evenodd;stroke:#000000;stroke-width:1pt"
         transform="matrix(-0.8,0,0,-0.8,-10,0)" />
    </marker>
    <inkscape:path-effect
       effect="spiro"
       id="path-effect3942-3"
       is_visible="true" />
  </defs>
  <sodipodi:namedview
     id="base"
     pagecolor="#ffffff"
     bordercolor="#666666"
     borderopacity="1.0"
     inkscape:pageopacity="0.0"
     inkscape:pageshadow="2"
     inkscape:zoom="0.35"
     inkscape:cx="385.50043"
     inkscape:cy="-313.96198"
     inkscape:document-units="px"
     inkscape:current-layer="layer1"
     showgrid="false"
     inkscape:window-width="1440"
     inkscape:window-height="876"
     inkscape:window-x="0"
     inkscape:window-y="24"
     inkscape:window-maximized="1"
     fit-margin-top="0"
     fit-margin-left="0"
     fit-margin-right="0"
     fit-margin-bottom="0" />
  <metadata
     id="metadata7">
    <rdf:RDF>
      <cc:Work
         rdf:about="">
        <dc:format>image/svg+xml</dc:format>
        <dc:type
           rdf:resource="http://purl.org/dc/dcmitype/StillImage" />
        <dc:title></dc:title>
      </cc:Work>
    </rdf:RDF>
  </metadata>
  <g
     inkscape:label="Layer 1"
     inkscape:groupmode="layer"
     id="layer1"
     transform="translate(-16.92857,-243.00504)">
    <path
       transform="translate(91.428567,7.8571252)"
       sodipodi:type="arc"
       style="color:#000000;fill:#4d4d4d;fill-opacity:1;fill-rule:nonzero;stroke:#000000;stroke-width:3;stroke-opacity:1;marker:none;visibility:visible;display:inline;overflow:visible;enable-background:accumulate"
       id="path2985-0"
       sodipodi:cx="112.14286"
       sodipodi:cy="538.79077"
       sodipodi:rx="45"
       sodipodi:ry="45"
       d="m 157.14286,538.79077 c 0,24.85282 -20.14719,45 -45,45 -24.852813,0 -45,-20.14718 -45,-45 0,-24.85281 20.147187,-45 45,-45 24.85281,0 45,20.14719 45,45 z" />
    <path
       transform="translate(-7.8571461,7.8571252)"
       sodipodi:type="arc"
       style="color:#000000;fill:#4d4d4d;fill-opacity:1;fill-rule:nonzero;stroke:#000000;stroke-width:3;stroke-opacity:1;marker:none;visibility:visible;display:inline;overflow:visible;enable-background:accumulate"
       id="path2985-0-3"
       sodipodi:cx="112.14286"
       sodipodi:cy="538.79077"
       sodipodi:rx="45"
       sodipodi:ry="45"
       d="m 157.14286,538.79077 c 0,24.85282 -20.14719,45 -45,45 -24.852813,0 -45,-20.14718 -45,-45 0,-24.85281 20.147187,-45 45,-45 24.85281,0 45,20.14719 45,45 z" />
    <path
       transform="translate(190.71429,7.8571252)"
       sodipodi:type="arc"
       style="color:#000000;fill:#4d4d4d;fill-opacity:1;fill-rule:nonzero;stroke:#000000;stroke-width:3;stroke-opacity:1;marker:none;visibility:visible;display:inline;overflow:visible;enable-background:accumulate"
       id="path2985-0-6"
       sodipodi:cx="112.14286"
       sodipodi:cy="538.79077"
       sodipodi:rx="45"
       sodipodi:ry="45"
       d="m 157.14286,538.79077 c 0,24.85282 -20.14719,45 -45,45 -24.852813,0 -45,-20.14718 -45,-45 0,-24.85281 20.147187,-45 45,-45 24.85281,0 45,20.14719 45,45 z" />
    <path
       transform="translate(289.99999,7.8571252)"
       sodipodi:type="arc"
       style="color:#000000;fill:#4d4d4d;fill-opacity:1;fill-rule:nonzero;stroke:#000000;stroke-width:3;stroke-opacity:1;marker:none;visibility:visible;display:inline;overflow:visible;enable-background:accumulate"
       id="path2985-0-7"
       sodipodi:cx="112.14286"
       sodipodi:cy="538.79077"
       sodipodi:rx="45"
       sodipodi:ry="45"
       d="m 157.14286,538.79077 c 0,24.85282 -20.14719,45 -45,45 -24.852813,0 -45,-20.14718 -45,-45 0,-24.85281 20.147187,-45 45,-45 24.85281,0 45,20.14719 45,45 z" />
    <path
       transform="translate(389.28571,7.8571252)"
       sodipodi:type="arc"
       style="color:#000000;fill:#4d4d4d;fill-opacity:1;fill-rule:nonzero;stroke:#000000;stroke-width:3;stroke-opacity:1;marker:none;visibility:visible;display:inline;overflow:visible;enable-background:accumulate"
       id="path2985-0-0"
       sodipodi:cx="112.14286"
       sodipodi:cy="538.79077"
       sodipodi:rx="45"
       sodipodi:ry="45"
       d="m 157.14286,538.79077 c 0,24.85282 -20.14719,45 -45,45 -24.852813,0 -45,-20.14718 -45,-45 0,-24.85281 20.147187,-45 45,-45 24.85281,0 45,20.14719 45,45 z" />
    <path
       transform="translate(50.57142,93.2857)"
       sodipodi:type="arc"
       style="color:#000000;fill:#4d4d4d;fill-opacity:1;fill-rule:nonzero;stroke:#000000;stroke-width:3;stroke-opacity:1;marker:none;visibility:visible;display:inline;overflow:visible;enable-background:accumulate"
       id="path2985-0-39"
       sodipodi:cx="112.14286"
       sodipodi:cy="538.79077"
       sodipodi:rx="45"
       sodipodi:ry="45"
       d="m 157.14286,538.79077 c 0,24.85282 -20.14719,45 -45,45 -24.852813,0 -45,-20.14718 -45,-45 0,-24.85281 20.147187,-45 45,-45 24.85281,0 45,20.14719 45,45 z" />
    <path
       transform="translate(-48.71429,93.2857)"
       sodipodi:type="arc"
       style="color:#000000;fill:#4d4d4d;fill-opacity:1;fill-rule:nonzero;stroke:#000000;stroke-width:3;stroke-opacity:1;marker:none;visibility:visible;display:inline;overflow:visible;enable-background:accumulate"
       id="path2985-0-3-7"
       sodipodi:cx="112.14286"
       sodipodi:cy="538.79077"
       sodipodi:rx="45"
       sodipodi:ry="45"
       d="m 157.14286,538.79077 c 0,24.85282 -20.14719,45 -45,45 -24.852813,0 -45,-20.14718 -45,-45 0,-24.85281 20.147187,-45 45,-45 24.85281,0 45,20.14719 45,45 z" />
    <path
       transform="translate(149.85715,93.2857)"
       sodipodi:type="arc"
       style="color:#000000;fill:#4d4d4d;fill-opacity:1;fill-rule:nonzero;stroke:#000000;stroke-width:3;stroke-opacity:1;marker:none;visibility:visible;display:inline;overflow:visible;enable-background:accumulate"
       id="path2985-0-6-2"
       sodipodi:cx="112.14286"
       sodipodi:cy="538.79077"
       sodipodi:rx="45"
       sodipodi:ry="45"
       d="m 157.14286,538.79077 c 0,24.85282 -20.14719,45 -45,45 -24.852813,0 -45,-20.14718 -45,-45 0,-24.85281 20.147187,-45 45,-45 24.85281,0 45,20.14719 45,45 z" />
    <path
       transform="translate(249.14285,93.2857)"
       sodipodi:type="arc"
       style="color:#000000;fill:#4d4d4d;fill-opacity:1;fill-rule:nonzero;stroke:#000000;stroke-width:3;stroke-opacity:1;marker:none;visibility:visible;display:inline;overflow:visible;enable-background:accumulate"
       id="path2985-0-7-1"
       sodipodi:cx="112.14286"
       sodipodi:cy="538.79077"
       sodipodi:rx="45"
       sodipodi:ry="45"
       d="m 157.14286,538.79077 c 0,24.85282 -20.14719,45 -45,45 -24.852813,0 -45,-20.14718 -45,-45 0,-24.85281 20.147187,-45 45,-45 24.85281,0 45,20.14719 45,45 z" />
    <path
       transform="translate(348.42857,93.2857)"
       sodipodi:type="arc"
       style="color:#000000;fill:#4d4d4d;fill-opacity:1;fill-rule:nonzero;stroke:#000000;stroke-width:3;stroke-opacity:1;marker:none;visibility:visible;display:inline;overflow:visible;enable-background:accumulate"
       id="path2985-0-0-0"
       sodipodi:cx="112.14286"
       sodipodi:cy="538.79077"
       sodipodi:rx="45"
       sodipodi:ry="45"
       d="m 157.14286,538.79077 c 0,24.85282 -20.14719,45 -45,45 -24.852813,0 -45,-20.14718 -45,-45 0,-24.85281 20.147187,-45 45,-45 24.85281,0 45,20.14719 45,45 z" />
    <path
       transform="translate(103.14285,176.99998)"
       sodipodi:type="arc"
       style="color:#000000;fill:#4d4d4d;fill-opacity:1;fill-rule:nonzero;stroke:#000000;stroke-width:3;stroke-opacity:1;marker:none;visibility:visible;display:inline;overflow:visible;enable-background:accumulate"
       id="path2985-0-39-4"
       sodipodi:cx="112.14286"
       sodipodi:cy="538.79077"
       sodipodi:rx="45"
       sodipodi:ry="45"
       d="m 157.14286,538.79077 c 0,24.85282 -20.14719,45 -45,45 -24.852813,0 -45,-20.14718 -45,-45 0,-24.85281 20.147187,-45 45,-45 24.85281,0 45,20.14719 45,45 z" />
    <path
       transform="translate(3.857138,176.99998)"
       sodipodi:type="arc"
       style="color:#000000;fill:#4d4d4d;fill-opacity:1;fill-rule:nonzero;stroke:#000000;stroke-width:3;stroke-opacity:1;marker:none;visibility:visible;display:inline;overflow:visible;enable-background:accumulate"
       id="path2985-0-3-7-2"
       sodipodi:cx="112.14286"
       sodipodi:cy="538.79077"
       sodipodi:rx="45"
       sodipodi:ry="45"
       d="m 157.14286,538.79077 c 0,24.85282 -20.14719,45 -45,45 -24.852813,0 -45,-20.14718 -45,-45 0,-24.85281 20.147187,-45 45,-45 24.85281,0 45,20.14719 45,45 z" />
    <path
       transform="translate(202.42858,176.99998)"
       sodipodi:type="arc"
       style="color:#000000;fill:#4d4d4d;fill-opacity:1;fill-rule:nonzero;stroke:#000000;stroke-width:3;stroke-opacity:1;marker:none;visibility:visible;display:inline;overflow:visible;enable-background:accumulate"
       id="path2985-0-6-2-0"
       sodipodi:cx="112.14286"
       sodipodi:cy="538.79077"
       sodipodi:rx="45"
       sodipodi:ry="45"
       d="m 157.14286,538.79077 c 0,24.85282 -20.14719,45 -45,45 -24.852813,0 -45,-20.14718 -45,-45 0,-24.85281 20.147187,-45 45,-45 24.85281,0 45,20.14719 45,45 z" />
    <path
       transform="translate(301.71428,176.99998)"
       sodipodi:type="arc"
       style="color:#000000;fill:#4d4d4d;fill-opacity:1;fill-rule:nonzero;stroke:#000000;stroke-width:3;stroke-opacity:1;marker:none;visibility:visible;display:inline;overflow:visible;enable-background:accumulate"
       id="path2985-0-7-1-6"
       sodipodi:cx="112.14286"
       sodipodi:cy="538.79077"
       sodipodi:rx="45"
       sodipodi:ry="45"
       d="m 157.14286,538.79077 c 0,24.85282 -20.14719,45 -45,45 -24.852813,0 -45,-20.14718 -45,-45 0,-24.85281 20.147187,-45 45,-45 24.85281,0 45,20.14719 45,45 z" />
    <path
       transform="translate(401,176.99998)"
       sodipodi:type="arc"
       style="color:#000000;fill:#4d4d4d;fill-opacity:1;fill-rule:nonzero;stroke:#000000;stroke-width:3;stroke-opacity:1;marker:none;visibility:visible;display:inline;overflow:visible;enable-background:accumulate"
       id="path2985-0-0-0-2"
       sodipodi:cx="112.14286"
       sodipodi:cy="538.79077"
       sodipodi:rx="45"
       sodipodi:ry="45"
       d="m 157.14286,538.79077 c 0,24.85282 -20.14719,45 -45,45 -24.852813,0 -45,-20.14718 -45,-45 0,-24.85281 20.147187,-45 45,-45 24.85281,0 45,20.14719 45,45 z" />
    <path
       transform="matrix(0.69278034,0,0,0.69278034,39.452488,-59.472895)"
       sodipodi:type="arc"
       style="color:#000000;fill:#851515;fill-opacity:1;fill-rule:nonzero;stroke:#000000;stroke-width:3;stroke-opacity:1;marker:none;visibility:visible;display:inline;overflow:visible;enable-background:accumulate"
       id="path2985-0-3-4"
       sodipodi:cx="112.14286"
       sodipodi:cy="538.79077"
       sodipodi:rx="45"
       sodipodi:ry="45"
       d="m 157.14286,538.79077 c 0,24.85282 -20.14719,45 -45,45 -24.852813,0 -45,-20.14718 -45,-45 0,-24.85281 20.147187,-45 45,-45 24.85281,0 45,20.14719 45,45 z" />
    <path
       transform="matrix(0.69278034,0,0,0.69278034,332.30963,-98.044329)"
       sodipodi:type="arc"
       style="color:#000000;fill:#151885;fill-opacity:1;fill-rule:nonzero;stroke:#000000;stroke-width:3;stroke-opacity:1;marker:none;visibility:visible;display:inline;overflow:visible;enable-background:accumulate"
       id="path2985-0-3-4-7"
       sodipodi:cx="112.14286"
       sodipodi:cy="538.79077"
       sodipodi:rx="45"
       sodipodi:ry="45"
       d="m 157.14286,538.79077 c 0,24.85282 -20.14719,45 -45,45 -24.852813,0 -45,-20.14718 -45,-45 0,-24.85281 20.147187,-45 45,-45 24.85281,0 45,20.14719 45,45 z" />
    <path
       style="fill:none;stroke:#000000;stroke-width:1px;stroke-linecap:butt;stroke-linejoin:miter;stroke-opacity:1;marker-end:url(#Arrow1Lend)"
       d="m 408.57143,325.21933 c -10.22018,56.4295 -39.9047,109.14511 -82.85714,147.14285 -8.13851,7.19971 -16.73279,13.88414 -25.71429,20"
       id="path3940"
       inkscape:path-effect="#path-effect3942"
       inkscape:original-d="m 408.57143,325.21933 c -26.9531,48.34458 -50.32363,101.59593 -82.85714,147.14285 -4.84929,6.789 -20.07609,31.27641 -25.71429,20"
       inkscape:connector-curvature="0" />
    <path
       style="color:#000000;fill:none;stroke:#000000;stroke-width:1px;stroke-linecap:butt;stroke-linejoin:miter;stroke-miterlimit:4;stroke-opacity:1;stroke-dasharray:none;stroke-dashoffset:0;marker:none;marker-end:url(#Arrow1Lend);visibility:visible;display:inline;overflow:visible;enable-background:accumulate"
       d="m 125.71429,353.07647 c 21.64367,8.78853 40.55788,24.17209 53.57142,43.57143 6.78063,10.1079 11.96048,21.20889 18.57143,31.42857 7.39923,11.43827 16.51986,21.66454 24.28572,32.85714 6.81575,9.82325 12.57387,20.37981 17.14285,31.42857"
       id="path4600"
       inkscape:path-effect="#path-effect4602"
       inkscape:original-d="m 125.71429,353.07647 c 15.87399,12.00884 42.79356,27.40463 53.57142,43.57143 6.66409,9.99612 11.23241,21.99268 18.57143,31.42857 8.44563,10.85866 17.33371,21.27047 24.28572,32.85714 2.80825,4.68042 17.0226,31.36845 17.14285,31.42857"
       inkscape:connector-curvature="0" />
  </g>
</svg>
